{
  "$schema": "http://json-schema.org/draft-07/schema#",
  "type": "object",
  "patternProperties": {
    "^(en|es|fr|it|de|ptbr|jp)\\.card name$": {
      "type": "string"
    },
    "^(en|es|fr|it|de|ptbr|jp)\\.evolves from$": {
      "type": "string"
    },
    "^(en|es|fr|it|de|ptbr|jp)\\.species$": {
      "type": "string"
    },
    "^(en|es|fr|it|de|ptbr|jp)\\.flavor text$": {
      "type": "string"
    },
    "^(jp)\\.source$": {
      "type": "string"
    },
    "^(jp)\\.flavor text \\(hiragana\\)$": {
      "type": "string"
    },
    "^(jp)\\.flavor text \\(kanji\\)$": {
      "type": "string"
    }
  },
  "properties": {
    "archetypeid": {
      "type": "string"
    },
    "cardid": {
      "type": "string"
    },
    "collection #": {
      "type": "string"
    },
    "TPCi card #": {
      "type": "string"
    },
    "rarity": {
      "type": "string"
    },
    "copyright": {
      "type": "string"
    },
    "expansion symbol": {
      "type": "string"
    },
    "illustrator": {
      "type": "string"
    },
    "regulation symbol": {
      "type": "string"
    },
    "category": {
      "type": "string",
      "enum": [
        "Pokémon",
        "Trainer",
        "Energy"
      ]
    },
    "subcategory": {
      "type": "string"
    },
    "hp": {
      "type": "integer",
      "minimum": 10,
      "maximum": 500
    },
    "type": {
      "type": "string"
    },
    "baseevolution": {
      "type": "string"
    },
    "resistance type": {
      "type": "string"
    },
    "resistance value": {
      "type": "string"
    },
    "retreat": {
      "type": "integer"
    },
    "weakness type": {
      "type": "string"
    },
    "weakness value": {
      "type": "string"
    },
    "flavor version": {
      "type": "string"
    },
    "height (ft.)": {
      "type": "string"
    },
    "height (m)": {
      "type": "string"
    },
    "weight (kg)": {
      "type": "string"
    },
    "weight (lbs.)": {
      "type": "string"
    },
    "national pokédex #": {
      "type": "string"
    },
    "lv.": {
      "type": "string"
    },
    "reference": {
      "type": "string",
      "description": "Translation reference (non-US)"
    },
    "tags": {
      "type": "object",
      "properties": {
        "GX": {
          "type": "boolean"
        },
        "EX": {
          "type": "boolean"
        },
        "Prism Star": {
          "type": "boolean"
        },
        "TAG": {
          "type": "boolean"
        },
        "Promo": {
          "type": "boolean"
        },
        "Ultra Beast": {
          "type": "boolean"
        }
      },
      "additionalProperties": false
    },
    "abilities": {
      "type": "array",
      "items": {
        "type": "object",
        "properties": {
          "cost": {
            "type": "string"
          },
          "damage": {
            "type": "string"
          },
          "type": {
            "type": "string"
          }
        },
        "patternProperties": {
          "^(en|es|fr|it|de|ptbr|jp)\\.name$": {
            "type": "string"
          },
          "^(en|es|fr|it|de|ptbr|jp)\\.text$": {
            "type": "string"
          },
          "^(en|es|fr|it|de|ptbr|jp)\\.draft$": {
            "type": "string"
          }
        },
        "additionalProperties": false
      },
      "minItems": 1,
      "maxItems": 4
    },
    "comments": {
      "type": "object"
    }
  },
  "required": [
    "TPCi card #",
    "category",
    "subcategory"
  ],
  "additionalProperties": false
}